<?xml version="1.0" encoding="UTF-8"?>
<ModuleFile xmlns:xsi="http://www.w3.org/2001/XMLSchema-instance">
	<UiMod name="WarBoard_FPS" version="0.3.2" date="05/31/2009">
		<Author name="Computerpunk" email="teromario@yahoo.com" />
		<Description text="A FPS counter for WarBoard" />
		<VersionSettings gameVersion="1.4.1" windowsVersion="1.0" savedVariablesVersion="1.1" />
		<Dependencies>
			<Dependency name="WarBoard" />
		</Dependencies>
		<Files>
			<File name="WarBoard_FPS.lua" />
			<File name="WarBoard_FPS.xml" />
			<File name="WarBoard_FPSOptions.xml" />
			<File name="WarBoard_FPSOptions.lua" />
		</Files>
		<OnInitialize>
			<CallFunction name="WarBoard_FPS.Initialize" />
		</OnInitialize>
		<OnUpdate>
			<CallFunction name="WarBoard_FPS.OnUpdate" />
		</OnUpdate>

		<SavedVariables>
			<SavedVariable name="WarBoard_FPSSettings" />
		</SavedVariables>
		<WARInfo>
	<Categories>
		<Category name="SYSTEM" />
		<Category name="OTHER" />
	</Categories>
	<Careers>
		<Career name="BLACKGUARD" />
		<Career name="WITCH_ELF" />
		<Career name="DISCIPLE" />
		<Career name="SORCERER" />
		<Career name="IRON_BREAKER" />
		<Career name="SLAYER" />
		<Career name="RUNE_PRIEST" />
		<Career name="ENGINEER" />
		<Career name="BLACK_ORC" />
		<Career name="CHOPPA" />
		<Career name="SHAMAN" />
		<Career name="SQUIG_HERDER" />
		<Career name="WITCH_HUNTER" />
		<Career name="KNIGHT" />
		<Career name="BRIGHT_WIZARD" />
		<Career name="WARRIOR_PRIEST" />
		<Career name="CHOSEN" />
		<Career name= "MARAUDER" />
		<Career name="ZEALOT" />
		<Career name="MAGUS" />
		<Career name="SWORDMASTER" />
		<Career name="SHADOW_WARRIOR" />
		<Career name="WHITE_LION" />
		<Career name="ARCHMAGE" />
	</Careers>
		</WARInfo>
	</UiMod>
</ModuleFile>
